<svg xmlns="http://www.w3.org/2000/svg" xmlns:xlink="http://www.w3.org/1999/xlink" width="53" height="53" viewBox="0 0 53 53">
  <defs>
    <linearGradient id="linear-gradient" y1="1" x2="0.242" y2="1" gradientUnits="objectBoundingBox">
      <stop offset="0" stop-color="red"/>
      <stop offset="1" stop-color="#d50707"/>
    </linearGradient>
    <clipPath id="clip-path">
      <rect id="Rectangle_927" data-name="Rectangle 927" width="53" height="53" transform="translate(0 0.175)" fill="none"/>
    </clipPath>
    <clipPath id="clip-path-2">
      <path id="Path_708" data-name="Path 708" d="M.405,21.614A21.209,21.209,0,1,0,21.614.405,21.22,21.22,0,0,0,.405,21.614" transform="translate(-0.405 -0.405)" fill="red"/>
    </clipPath>
    <clipPath id="clip-path-3">
      <path id="Path_709" data-name="Path 709" d="M7.56,26.389A18.823,18.823,0,1,1,26.389,45.219,18.818,18.818,0,0,1,7.56,26.389M26.389,0A26.389,26.389,0,1,0,52.779,26.389,26.387,26.387,0,0,0,26.389,0Z" fill="url(#linear-gradient)"/>
    </clipPath>
    <clipPath id="clip-path-5">
      <rect id="Rectangle_919" data-name="Rectangle 919" width="50.509" height="50.509" fill="none"/>
    </clipPath>
    <clipPath id="clip-path-6">
      <path id="Path_710" data-name="Path 710" d="M25.34.089A25.251,25.251,0,1,0,50.591,25.34,25.254,25.254,0,0,0,25.34.089m0,5.3A19.955,19.955,0,1,1,5.385,25.34,19.948,19.948,0,0,1,25.34,5.385" transform="translate(-0.089 -0.089)" fill="none" clip-rule="evenodd"/>
    </clipPath>
    <linearGradient id="linear-gradient-3" x1="-0.023" y1="1.023" x2="0.231" y2="1.023" gradientUnits="objectBoundingBox">
      <stop offset="0" stop-color="#150000"/>
      <stop offset="0.017" stop-color="#150000"/>
      <stop offset="0.982" stop-color="#83dfff"/>
      <stop offset="1" stop-color="#83dfff"/>
    </linearGradient>
    <clipPath id="clip-path-7">
      <rect id="Rectangle_921" data-name="Rectangle 921" width="42.408" height="13.574" fill="none"/>
    </clipPath>
    <clipPath id="clip-path-8">
      <path id="Path_711" data-name="Path 711" d="M2.855,13.088A1.329,1.329,0,0,1,.617,11.655,24.883,24.883,0,0,1,33.568,3.174,25.077,25.077,0,0,1,42.6,11.655a1.329,1.329,0,0,1-2.239,1.433,22.21,22.21,0,0,0-37.505,0" transform="translate(-0.406 -0.117)" fill="none"/>
    </clipPath>
    <linearGradient id="linear-gradient-4" x1="-0.117" y1="3.726" x2="0.182" y2="3.726" xlink:href="#linear-gradient-3"/>
    <clipPath id="clip-path-9">
      <path id="Path_713" data-name="Path 713" d="M12.549,17.6A54.353,54.353,0,0,0,7.24,8.4,20.783,20.783,0,0,0,.921,12.05c2.251,5.206,6.716,12.7,8.468,14.659a25.478,25.478,0,0,0,6.319,0c4.528-7.1,8.826-14.4,12.741-22.027a26.887,26.887,0,0,0-6.332-3.658A111.97,111.97,0,0,0,12.549,17.6" transform="translate(-0.921 -1.024)" fill="none"/>
    </clipPath>
    <linearGradient id="linear-gradient-5" x1="-0.428" y1="1.528" x2="0.037" y2="1.528" gradientUnits="objectBoundingBox">
      <stop offset="0" stop-color="#83dfff"/>
      <stop offset="0.067" stop-color="#83dfff"/>
      <stop offset="1" stop-color="#aeeaff"/>
    </linearGradient>
    <clipPath id="clip-path-11">
      <rect id="Rectangle_925" data-name="Rectangle 925" width="27.524" height="20.295" fill="none"/>
    </clipPath>
    <clipPath id="clip-path-12">
      <path id="Path_714" data-name="Path 714" d="M10.886,14.251A52.392,52.392,0,0,0,7.24,8.4,20.783,20.783,0,0,0,.921,12.05a80.592,80.592,0,0,0,3.671,7.24c.333.588.678,1.177,1.011,1.74,2.853,1.33,14.071-2.1,17.243-6.063q2.9-5.066,5.59-10.285a27.258,27.258,0,0,0-6.319-3.658A111.511,111.511,0,0,0,12.6,17.487c-.576-1.036-1.126-2.162-1.714-3.236" transform="translate(-0.921 -1.024)" fill="none" clip-rule="evenodd"/>
    </clipPath>
    <linearGradient id="linear-gradient-6" x1="-0.428" y1="1.86" x2="0.037" y2="1.86" gradientUnits="objectBoundingBox">
      <stop offset="0" stop-color="#113263"/>
      <stop offset="1" stop-color="#aeeaff"/>
    </linearGradient>
  </defs>
  <g id="Group_6674" data-name="Group 6674" transform="translate(0 -0.175)">
    <g id="Group_2276" data-name="Group 2276" clip-path="url(#clip-path)">
      <g id="Group_2252" data-name="Group 2252" transform="translate(5.181 5.181)">
        <g id="Group_2251" data-name="Group 2251" clip-path="url(#clip-path-2)">
          <rect id="Rectangle_916" data-name="Rectangle 916" width="42.417" height="42.417" transform="translate(0 0)" fill="red"/>
        </g>
      </g>
      <g id="Group_2254" data-name="Group 2254">
        <g id="Group_2253" data-name="Group 2253" clip-path="url(#clip-path-3)">
          <rect id="Rectangle_917" data-name="Rectangle 917" width="53" height="53" transform="translate(0 0.175)" fill="url(#linear-gradient)"/>
        </g>
      </g>
      <g id="Group_2266" data-name="Group 2266" transform="translate(0 0)">
        <g id="Group_2265" data-name="Group 2265" clip-path="url(#clip-path)">
          <g id="Group_2259" data-name="Group 2259" transform="translate(1.135 1.134)" opacity="0.75" style="mix-blend-mode: screen;isolation: isolate">
            <g id="Group_2258" data-name="Group 2258">
              <g id="Group_2257" data-name="Group 2257" clip-path="url(#clip-path-5)">
                <g id="Group_2256" data-name="Group 2256" transform="translate(0.004 0.004)">
                  <g id="Group_2255" data-name="Group 2255" clip-path="url(#clip-path-6)">
                    <rect id="Rectangle_918" data-name="Rectangle 918" width="50.502" height="50.502" transform="translate(0 0)" fill="url(#linear-gradient-3)"/>
                  </g>
                </g>
              </g>
            </g>
          </g>
          <g id="Group_2264" data-name="Group 2264" transform="translate(5.185 1.502)" style="mix-blend-mode: screen;isolation: isolate">
            <g id="Group_2263" data-name="Group 2263">
              <g id="Group_2262" data-name="Group 2262" clip-path="url(#clip-path-7)">
                <g id="Group_2261" data-name="Group 2261" transform="translate(0.002 -0.005)">
                  <g id="Group_2260" data-name="Group 2260" clip-path="url(#clip-path-8)">
                    <rect id="Rectangle_920" data-name="Rectangle 920" width="42.775" height="13.764" transform="translate(-0.186 0)" fill="url(#linear-gradient-4)"/>
                  </g>
                </g>
              </g>
            </g>
          </g>
          <path id="Path_712" data-name="Path 712" d="M15.468,26.269A171.862,171.862,0,0,0,28.49,4.779c-2.341-2.4-4.579-2.968-6.319-3.658A111.969,111.969,0,0,0,12.6,17.7,54.858,54.858,0,0,0,7.294,8.5,20.783,20.783,0,0,0,.975,12.147C3.226,17.354,7.4,24.287,9.149,26.269a26.774,26.774,0,0,0,6.319,0" transform="translate(11.497 13.219)" fill="#113263" fill-rule="evenodd"/>
        </g>
      </g>
      <g id="Group_2268" data-name="Group 2268" transform="translate(11.781 13.099)">
        <g id="Group_2267" data-name="Group 2267" clip-path="url(#clip-path-9)">
          <rect id="Rectangle_923" data-name="Rectangle 923" width="27.528" height="25.967" transform="translate(0 0)" fill="url(#linear-gradient-5)"/>
        </g>
      </g>
      <g id="Group_2275" data-name="Group 2275" transform="translate(0 0)">
        <g id="Group_2274" data-name="Group 2274" clip-path="url(#clip-path)">
          <g id="Group_2273" data-name="Group 2273" transform="translate(11.775 13.1)" style="mix-blend-mode: screen;isolation: isolate">
            <g id="Group_2272" data-name="Group 2272">
              <g id="Group_2271" data-name="Group 2271" clip-path="url(#clip-path-11)">
                <g id="Group_2270" data-name="Group 2270" transform="translate(0.006 -0.001)">
                  <g id="Group_2269" data-name="Group 2269" clip-path="url(#clip-path-12)">
                    <rect id="Rectangle_924" data-name="Rectangle 924" width="27.515" height="21.337" transform="translate(0 0)" fill="url(#linear-gradient-6)"/>
                  </g>
                </g>
              </g>
            </g>
          </g>
        </g>
      </g>
    </g>
  </g>
</svg>
